{"total":19961,"per_page":20,"last_page":999,"page":5,"projects":[{"id":11399,"url":"https:\/\/hackaday.io\/project\/11399-micro-robots-for-education","owner_id":136935,"name":"Micro Robots for Education","summary":"We aim to make multi-robot systems a viable way to introduce students to the delight that is robotics. ","description":"We are building small robots and the accompanying software for the educational market. The aim is that the robots will set a new standard for compact and cost effective educational experiments.   \r\n\r\nA set of robots will be managed by a master system based on a Raspberry Pi, for now named &apos;god bot&apos;. This will handle multiplexing the IR communications, extracting the robot locations using it&apos;s camera and communications with the internet etc. It will also be the platform on which students will develop applications, for most uses the robots themselves can just use &apos;standard&apos; firmware. \r\n\r\nThe design methodology is to keep things cheap and simple. We want each robot to cost ~10gbp per unit at quantity, and each robot should be under 2cm square. This is to combat the price sensitivity of schools, and limited space classrooms have for multi agent robotic systems. ","image_url":"https:\/\/cdn.hackaday.io\/images\/3913641462794446952.jpg","views":26257,"comments":19,"followers":336,"skulls":232,"logs":22,"details":1,"instruction":9,"components":0,"images":6,"created":1461601818,"updated":1509145607,"tags":["raspberry pi","small","hardware","ros","arduino","education","2016HackadayPrize","robots","ongoing project"]},{"id":21046,"url":"https:\/\/hackaday.io\/project\/21046-heartypatch-a-single-lead-ecg-hr-patch-with-esp32","owner_id":208981,"name":"HeartyPatch: A single-lead ECG-HR patch with ESP32","summary":"HeartyPatch is a  fully open-source, IoT connected, BLE enabled heart-rate variability & ECG  patch with great accuracy","description":"ECG monitors are plenty, so how is this one different? We&apos;re glad you asked, read on to find out more. HeartyPatch is a completely open-source wireless single-lead ECG &quot;patch&quot; which can calculate heart-rate, R-R intervals and most importantly, Heart-rate variability (HRV). Connect this data to the web of things through WiFi\/Bluetooth, or also connect to an app on your phone, and you&apos;ve got your very own, smart, cloud-connected HRV monitor. \r\n\r\nHRV is the trend at which the heart-rate, or more specifically, the time between two peaks on your ECG, changes. This change in R-R interval, and ultimately the heart-rate can mean a lot of things. For starters, it gives a good indicator of the health of your heart, one step further than just plain old heart-rate. The social implications of such a product would be enormous, think of a device that can predict heart attacks !!! ","image_url":"https:\/\/cdn.hackaday.io\/images\/7608041492613313796.jpg","views":22674,"comments":51,"followers":508,"skulls":232,"logs":27,"details":1,"instruction":4,"components":7,"images":3,"created":1491673310,"updated":1535830177,"tags":["Healthcare","fitness","2017HackadayPrize","hardware","ongoing project","medical"]},{"id":1974,"url":"https:\/\/hackaday.io\/project\/1974-tj-99-thermal-imager","owner_id":19170,"name":"TJ - $99 Thermal Imager","summary":"A thumb-sized device that plugs into your iPhone \/ iPad \/ iPod Touch headphones jack and turns your iOS device into a Thermal Camera","description":"TJ (Thermal Jack) powers and communicates solely through your iOS device's headphones jack (so it needs NO external battery and uses NO wireless communication). This significantly helps to reduce its cost, complexity and size.\r\n\r\nTJ will use an Infrared FPA (Focal Plane Array) with an NETD of 0.15°K, a 4 FPS frame rate and a native resolution of 16 x 16 pixels, generating a heat map upscaled at iOS device's native screen resolution by Bicubic Interpolation. \r\n\r\nSuperResolution (combining several low resolution frames which exhibit sub-pixel shifts into a High Resolution stil-image) is currently being evaluated. \r\n\r\nAndroid and PC are supported too via an USB connection. The USB connection also allows updating the TJ microcontroller firmware. A UART connection will be offered too for low-level interfacing purposes.\r\n\r\nTJ is a fully open source \/ open hardware project and a crowd-funding campaign is expected to be launched late 2014 with the purpose of entering mass-production.","image_url":"https:\/\/cdn.hackaday.io\/images\/36981408350894621.png","views":49733,"comments":36,"followers":483,"skulls":228,"logs":8,"details":1,"instruction":0,"components":16,"images":5,"created":1405861743,"updated":1421846624,"tags":["infrared","THermal IMAGER","IPOD","ir","THermal Jack","PC","Android","TJ","iphone","TheHackadayPrize","ios","ongoing project","ipad"]},{"id":6592,"url":"https:\/\/hackaday.io\/project\/6592-dipsy","owner_id":38504,"name":"DIPSY","summary":"DIY System on Chip based on FPGA, priced below 5 USD","description":"NOTE all production documentation and source code in main github repo.\r\n----------------------------------------------------------------------------------------------------------\r\n\r\nDIY Yourself System On Chip, at below 5 USD pricing, hacking friendly, small and low power.\r\n\r\nSized 10x10mm, priced sub 5 USD (BOM price approx 1.5 USD) FPGA Module with ultra low power consumption. Easy accessible 100mil pin header style design.\r\n\r\nCan be used &quot;custom IC&quot; when the FPGA OTP internal NV memory is burned or as coprocessor or accelerator for slow microcontrollers configured over SPI interface.","image_url":"https:\/\/cdn.hackaday.io\/images\/6743471436548282190.jpg","views":41794,"comments":36,"followers":443,"skulls":228,"logs":58,"details":1,"instruction":0,"components":5,"images":6,"created":1435862346,"updated":1511113687,"tags":["FPGA","Basic","hardware","HACKADAYMEETUPBERLIN","avr","led","HACKADAYZURICH","VHDL","2015HackadayPrize","Verilog","ongoing project"]},{"id":7212,"url":"https:\/\/hackaday.io\/project\/7212-oshchip-v10","owner_id":30392,"name":"OSHChip V1.0","summary":"A tiny processor board the size of a 16 pin DIP with Bluetooth Low Energy","description":"OSHChip is one of the smallest processor boards available, and is the most powerful available in a 16 pin DIP format. When I first used DIP-16 devices, the complexity was about 4 to 100 gates. OSHChip V1.0 is about 3,000,000 gates (including 256 KB Flash memory and 32 KB SRAM).<br>And it includes a Bluetooth Low Energy radio (BLE)<br>It is compatible with the breadboards that are commonly used by electronic hobbyists. The pins are directly designed to work with these breadboards, they plug in easily and don&apos;t damage it.  Unlike other processor boards that are far larger, OSHChip can be plugged into the middle two rows of a breadboard, and it doesn&apos;t cover the connected holes that you will be connecting to.<br><br>NEWS:  10\/23\/2016  The pins used in OSHChip can now be purchased on Tindie and used with your projects and breakout boards:  <a target=\"_blank\" rel=\"noopener noreferrer\" href=\"http:\/\/oshchip.org\/products\/Flip-Pins_Product.html\">http:\/\/oshchip.org\/products\/Flip-Pins_P","image_url":"https:\/\/cdn.hackaday.io\/images\/244241452181325154.JPG","views":34198,"comments":33,"followers":405,"skulls":228,"logs":9,"details":1,"instruction":0,"components":15,"images":5,"created":1439537597,"updated":1499893853,"tags":["Bluetooth low energy","OSHChip","ble","Chip to Chip communications","2015HackadayPrize","hardware","Open source sw","ongoing project","Open source hw","tindie","Cortex M0 Processor"]},{"id":2519,"url":"https:\/\/hackaday.io\/project\/2519-arduino-anti-theft-alarm-shield","owner_id":24827,"name":"Arduino anti-theft alarm shield","summary":"Complete anti-theft alarm compatible with any kind of sensors, with RFID recognition, GSM and web server, based on Arduino Mega.","description":"This anti-theft alarm is basically an Arduino Mega Shield with fairly complex software.\r\n\r\nThe system is composed by a main circuit (the arduino shield) installed in an hidden place and an i2c connected \"remote control panel\" near the main house door, offering LCD, capacitive buttons and RFID recognition.\r\n\r\nThe whole system may be managed and configured from the webserver; webpages are published in iphone\/android webapp format. When the system is alarmed, it sends mail and SMS to the owner.\r\nIt also connects to house domotic system (e.g. close rolling shutters when it's activated), control IP cams, send push notification, detect humidity and temperature...","image_url":"https:\/\/cdn.hackaday.io\/images\/628341408467657022.jpg","views":89990,"comments":35,"followers":1739,"skulls":227,"logs":14,"details":1,"instruction":0,"components":16,"images":6,"created":1408353604,"updated":1438770365,"tags":["atmel","WEBAPP","ethernet","arduino","capacitive","i2c","2015HackadayPrize","nfc","completed project","alarm","theft","TheHackadayPrize","Shield","burglar","GSM"]},{"id":9976,"url":"https:\/\/hackaday.io\/project\/9976-dtto-explorer-modular-robot","owner_id":122530,"name":"Dtto - Explorer Modular Robot","summary":"Modular self-reconfigurable robot, focused on all-terrain search and rescue operations using bio-inspired locomotion mechanisms ","description":"&#x201C;You must be shapeless, formless, like water. When you pour water in a cup, it becomes the cup. When you pour water in a bottle, it becomes the bottle. When you pour water in a teapot, it becomes the teapot. Become like water my friend.&#x201D; Bruce Lee \r\n\r\nThe Dtto Robot is a modular transformable robot designed to be versatile, flexible and self-reconfigurable. The idea of modular robots is that they can adopt any shape they want, by changing the position and the connection of their modules. \r\n\r\nThe small size, the versatility and the limitless shapes it can adopt, make Dtto the perfect robot for all kind of search and rescue operations.\r\n\r\n\r\nFull project: <a href=\"https:\/\/github.com\/otrebla333\" target=\"_blank\">https:\/\/github.com\/otrebla333<\/a>","image_url":"https:\/\/cdn.hackaday.io\/images\/2247601475936687632.jpg","views":31810,"comments":30,"followers":698,"skulls":227,"logs":23,"details":1,"instruction":21,"components":14,"images":6,"created":1457022784,"updated":1521200306,"tags":["ROBOT","2016HackadayPrize","ongoing project","Robotics","urv","search","hardware","reconfigurable","project","dtto","modular","rescue"]},{"id":361,"url":"https:\/\/hackaday.io\/project\/361-homemade-pcb-mill-laseretcher","owner_id":1609,"name":"Homemade PCB-Mill \/ Laseretcher","summary":"Homemade X\/Y-Table to mill PCBs and etch materials like leather with a Laser","description":"","image_url":"https:\/\/cdn.hackaday.io\/images\/8448001410868504807.jpg","views":40408,"comments":18,"followers":710,"skulls":225,"logs":7,"details":1,"instruction":0,"components":0,"images":6,"created":1394440769,"updated":1410868518,"tags":["pcb mill","mill","CNC","laseretcher"]},{"id":13048,"url":"https:\/\/hackaday.io\/project\/13048-flea-ohm-fpga-project","owner_id":194,"name":"'Flea Ohm' FPGA Project","summary":"My attempt at making an FPGA experimenters board in a popular form factor :)","description":"FleaFPGA Ohm\/Ohm+ are my own attempts at making a powerful FPGA-based development board in a raspi zero form-factor. This time however, I use the new ECP5 FPGA from Lattice Semiconductor! ;-)","image_url":"https:\/\/cdn.hackaday.io\/images\/440691500959835538.jpg","views":44210,"comments":77,"followers":297,"skulls":225,"logs":20,"details":1,"instruction":0,"components":0,"images":6,"created":1470585563,"updated":1545989955,"tags":["FPGA","raspberry pi zero","electronics","raspberry pi","LattiCE Semiconductor","RASPI","hardware","ongoing project","Embedded","ECP5","ESP8266","VHDL","2016HackadayPrize","HDMI"]},{"id":4413,"url":"https:\/\/hackaday.io\/project\/4413-speeduino","owner_id":53246,"name":"Speeduino","summary":"The Arduino ECU \/ EMS Project.\r\nOpen, cheap, hacker friendly engine management","description":"This project aims to create a flexible, fully featured Engine Management Systems (EMS aka ECU) based on the low cost and open source Arduino platform.<br><br>Speeduino comprises both the hardware and software components that would be expected from a commercial engine management system, but in an open and low cost package. <br><br>Both the hardware and software continue to be under heavy development, but are capable of running both fuel and ignition for engines up to 8 cylinders. <br><br>For the latest feature status, see: <a target=\"_blank\" rel=\"noopener noreferrer\" href=\"http:\/\/speeduino.com\/wiki\/index.php\/Overview\">http:\/\/speeduino.com\/wiki\/index.php\/Overview<\/a><br>To join in on things, checkout the forum at: <a target=\"_blank\" rel=\"noopener noreferrer\" href=\"http:\/\/speeduino.com\/forum\">http:\/\/speeduino.com\/forum<\/a>","image_url":"https:\/\/cdn.hackaday.io\/images\/3672011424663707420.png","views":51579,"comments":17,"followers":658,"skulls":224,"logs":33,"details":0,"instruction":4,"components":2,"images":6,"created":1424663793,"updated":1545764191,"tags":["ECU","2017HackadayPrize","hardware","EMS","arduino","Fuel injection","ongoing project"]},{"id":19000,"url":"https:\/\/hackaday.io\/project\/19000-a-4-4ics-z80-homemade-computer-on-breadboard","owner_id":168420,"name":"A 4$, 4ICs, Z80 homemade computer on breadboard","summary":"No iron, no cry! Build a mini 4MHz Z80 64kB RAM system with Basic and Forth interpreters, CP\/M 2.2, QP\/M 2.71, Assembler and C toolchains ","description":"This is the Z80-MBC (Mobile Breadboard Computer), a mini 4MHz Z80 64kB RAM system with Basic and Forth interpreters, CP\/M 2.2, QP\/M 2.71, Assembler and C toolchains.<br><br>It is a complete development &quot;ecosystem&quot;, and using the iLoad boot mode it is possible cross-compile, load and execute on the target an Assembler or C program with a single command (like in the Arduino IDE).<br><br>More, it can be easily expanded and it has an &quot;Arduino heart&quot; using an Atmega32A as an &quot;universal&quot; I\/O emulator, and can be used and powered with a tablet or smartphone too...<br><br>This project has grown a lot on the way (more than I&apos;ve supposed at the beginning...) and now is renamed as &quot;Multi Boot Computer&quot; and is available on PCB (thanks to Bill Westfield) too.<br><br>* * NOTE * * : The new Z80-MBC2 is out!. Check it here: ( <a target=\"_blank\" rel=\"noopener noreferrer\" href=\"https:\/\/hackaday.io\/project\/159973\">https:\/\/hackaday.io\/project\/159973<\/a> )","image_url":"https:\/\/cdn.hackaday.io\/images\/3111361481979737110.jpg","views":63986,"comments":311,"followers":290,"skulls":224,"logs":14,"details":1,"instruction":6,"components":2,"images":4,"created":1481979844,"updated":1532767350,"tags":["hardware","ATMEGA32A","homemade","arduino","completed project","CP\/M","computer","Basic","Z80","QP\/M","BREADBOARD","atmel","2017HackadayPrize","FORTH"]},{"id":9281,"url":"https:\/\/hackaday.io\/project\/9281-murgen-open-source-ultrasound-imaging","owner_id":115437,"name":"Murgen: open source ultrasound imaging","summary":"An open-source ultrasound imaging dev kit side project","description":"Developing an open-source, low-cost technological DIY kit to allow scientists, academics, hackers, makers or OSH fans to hack their way to ultrasound imaging.\r\nThis project is not part of echopen","image_url":"https:\/\/cdn.hackaday.io\/images\/7183431460037321457.png","views":48060,"comments":15,"followers":1044,"skulls":223,"logs":37,"details":1,"instruction":5,"components":6,"images":6,"created":1453377575,"updated":1546521199,"tags":["beaglebone","modules","medical","ultrasound","motherboard","research","2016HackadayPrize","hardware","lowcost","imaging","Feather","WICED","electrical","ultrasounds","ongoing project"]},{"id":2879,"url":"https:\/\/hackaday.io\/project\/2879-esp8266-wifi-module-library","owner_id":667,"name":"ESP8266 WiFi Module Library","summary":"A project researching the capabilities and use of the newly available ESP8266 low-cost WiFi module.","description":"This project will investigate the newly available ESP8266 WiFi module which became popular after being sold for $5. This project will cover the currently available documentation and attempt to create a library for the MSP430 line of microcontrollers. ","image_url":"https:\/\/cdn.hackaday.io\/images\/1962071409162856464.jpg","views":158132,"comments":74,"followers":954,"skulls":222,"logs":4,"details":0,"instruction":0,"components":0,"images":1,"created":1409162041,"updated":1411759490,"tags":["ESP8266","MSP430","wifi"]},{"id":19393,"url":"https:\/\/hackaday.io\/project\/19393-tindie-dog-park","owner_id":130335,"name":"Tindie Dog Park","summary":"A place for Tindie sellers and the community \r\nto meet and stretch their legs","description":"Thinking about selling on <a target=\"_blank\" rel=\"noopener noreferrer\" href=\"http:\/\/Tindie.com\">Tindie.com<\/a>? Wondering about the best way to market your product? Or not ready to sell, but would like some feedback on your project? <br><br>Home of #TindieChat. Join this project to discuss all things Tindie.  <br><br>Check out the awesome <a target=\"_blank\" rel=\"noopener noreferrer\" href=\"http:\/\/Hackaday.io\">Hackaday.io<\/a> projects already on <a target=\"_blank\" rel=\"noopener noreferrer\" href=\"http:\/\/Tindie.com\">Tindie.com<\/a> here:<br><a target=\"_blank\" rel=\"noopener noreferrer\" href=\"https:\/\/hackaday.io\/list\/11210-awesome-projects-on-tindie\">https:\/\/hackaday.io\/list\/11210-awesome-projects-on-tindie<\/a><br><br>Got feedback or a feature request for Tindie? Let us know here:<br><a target=\"_blank\" rel=\"noopener noreferrer\" href=\"https:\/\/hackaday.io\/page\/2723-tindie-feedback\">https:\/\/hackaday.io\/page\/2723-tindie-feedback<\/a>","image_url":"https:\/\/cdn.hackaday.io\/images\/6985981484201709749.png","views":5285,"comments":6,"followers":360,"skulls":222,"logs":18,"details":0,"instruction":0,"components":0,"images":1,"created":1484202055,"updated":1517006759,"tags":["marketplace","tindie","hardware","ongoing project"]},{"id":4648,"url":"https:\/\/hackaday.io\/project\/4648-analogio-a-full-stack-iot-platform","owner_id":46306,"name":"analog.io - A full stack IoT platform","summary":"A full stack project dedicated to easily collecting, analyzing and sharing IoT sensor data.","description":"<a href=\"http:\/\/analog.io\" target=\"_blank\">analog.io<\/a> is a full stack IoT web service and hardware platforms where people can create connected devices and share them with the world.  It is designed to solve all kinds of world problems from air pollution, improving farm output or studying the bee population.  It is really only limited by the users imagination.\r\n\r\nFrom a software perspective, <a href=\"http:\/\/analog.io\" target=\"_blank\">analog.io<\/a> is a graphing front end that is backend agnostic.  What this means is that users have the freedom to host their own data locally, within the <a href=\"http:\/\/analog.io\" target=\"_blank\">analog.io<\/a> cloud, or choice of 3rd party services such as <a href=\"http:\/\/data.sparkfun.com\" target=\"_blank\">data.sparkfun.com<\/a>.  At the moment only <a href=\"http:\/\/phant.io\" target=\"_blank\">phant.io<\/a> servers are supported but it is entirely possible and on the roadmap to support services such as thingspeak as well. ","image_url":"https:\/\/cdn.hackaday.io\/images\/8393701426045682339.png","views":62358,"comments":10,"followers":2470,"skulls":221,"logs":34,"details":2,"instruction":1,"components":15,"images":6,"created":1426045231,"updated":1444373167,"tags":["bluetooth","2.4GHz","wireless","2015HackadayPrize","hardware","Energia","MSP430","HOPERF","arduino","TI","Software","ongoing project","915MHz","iot","ESP8266","electric imp"]},{"id":2263,"url":"https:\/\/hackaday.io\/project\/2263-oshwatch","owner_id":22429,"name":"OSHWatch","summary":"An open-source \"smart watch\" that can be built from easily available parts, and assembled by hand. Designed for hackers","description":"Smart-watches are becoming the next big thing, but with increased miniaturization it is becoming impossible to build these sorts of devices yourself. This project aims to provide a \"smart-watch\" which can be built from readily available components (eg. from element14, digikey, etc.), and able to be soldered by hand. Of course, processing power must be sacrificed, but who needs a camera and 60FPS graphics on a *watch*???\r\n\r\nYou are welcome to contribute! just comment below or send me an e-mail (on my website)","image_url":"https:\/\/cdn.hackaday.io\/images\/114021411771900090.jpg","views":25234,"comments":27,"followers":460,"skulls":220,"logs":9,"details":1,"instruction":0,"components":6,"images":6,"created":1407221770,"updated":1513568426,"tags":["WAtch","oled","smart watch","bluetooth","TheHackadayPrize","OSHW"]},{"id":13273,"url":"https:\/\/hackaday.io\/project\/13273-diy-vt100-a-miniature-hardware-terminal","owner_id":131802,"name":"diy-VT100 - A Miniature hardware terminal","summary":"Miniature VT100 with all the bells and whistles","description":"A small VT100 that you can carry in your hands, connect to any hardware that provide serial interface.- Bell (Speaker - 800Hz - Generated via DAC)<br>- 7 LED (ONLINE, LOCAL, KBD LOCKED, L1, L2, L3, L4 )<br>- USB and PS\/2 Keyboard <br>- UART 3.3V (5V tolerant pins &amp; Multiple speeds)<br>-  LCD (80x48 characters)<br>- Accept VT100 commands (most of them - at the moment)<br>- EEPROM to store configuration<br>- Uses STM32F767 (ARM uC M7)<br><br>Story: <a target=\"_blank\" rel=\"noopener noreferrer\" href=\"https:\/\/hackaday.io\/project\/13273\/log\/58462-story\">https:\/\/hackaday.io\/project\/13273\/log\/58462-story<\/a><br>Design files and firmware are released under GNU GPLv3 or later","image_url":"https:\/\/cdn.hackaday.io\/images\/8581261492572083066.JPG","views":23074,"comments":34,"followers":971,"skulls":219,"logs":14,"details":1,"instruction":0,"components":0,"images":6,"created":1471917971,"updated":1517044107,"tags":["terminal","keyboard","completed project","PROMPT","hack","micropython","hardware","PS2","STM32F1","diy","ili9341","computer","speaker","VT100","hacker","shell","DPI","LCD","cli","usb","serial","2017HackadayPrize","STM32"]},{"id":18899,"url":"https:\/\/hackaday.io\/project\/18899-rt-soldering-pen","owner_id":131618,"name":"RT Soldering pen","summary":"Soldering pen for Weller RT tips with OLED display","description":"Every hardware hacker need good soldering tool. My idea was to build own but with very specific qualities. On one side not so expensive, on second side high quality and also small with precise control and features. I found some projects where is used Weller soldering tips designed for WMRP soldering iron with standard 3.5mm jack and inside the tip is also thermocouple for sensing temperature. These tips are not so cheap but the quality is really great, especially for fine soldering. Hardware design is based on similar projects but with many modifications and improvements. Also my request was to make the hardware small as possible to fit into handle and capable to supply from hobbyist LiPO battery.<br>Buy one on tindiy: <a target=\"_blank\" rel=\"noopener noreferrer\" href=\"https:\/\/www.tindie.com\/products\/vlk\/rt-soldering-pen\/\">https:\/\/www.tindie.com\/products\/vlk\/rt-soldering-pen\/<\/a>","image_url":"https:\/\/cdn.hackaday.io\/images\/7979731529790708277.jpg","views":21911,"comments":87,"followers":819,"skulls":218,"logs":10,"details":1,"instruction":0,"components":5,"images":6,"created":1481494147,"updated":1533838440,"tags":["STM32","oled","2017HackadayPrize","hardware","completed project","soldering"]},{"id":143014,"url":"https:\/\/hackaday.io\/project\/143014-compact-25-spectrometer","owner_id":86746,"name":"Compact, $25 spectrometer","summary":"AMS's new AS7265X 3-chip set promises a compact, 18-channel, 20 nm FWMH spectrometer for less than $25","description":"Designing and building an inexpensive spectrometer just got easier with AMS&apos; new 3-chip AS7265X smart spectral sensor; once this is working, building a modern tricorder should be a piece of cake!","image_url":"https:\/\/cdn.hackaday.io\/images\/7670191537921237222.jpg","views":27628,"comments":59,"followers":321,"skulls":215,"logs":22,"details":1,"instruction":4,"components":0,"images":6,"created":1523921873,"updated":1540082650,"tags":["2018hackadayprize","ongoing project","hardware"]},{"id":159568,"url":"https:\/\/hackaday.io\/project\/159568-portal-point-generator","owner_id":131593,"name":" Portal Point Generator","summary":"An efficient and compact generator that can be coupled with wind turbines or water wheels to produce upwards of 100W","description":"Originally designed and built to take on an expedition to Antarctica coupled with a wind turbine. Portal Point was one of the locations in Antarctica that this was set up to generate power to charge electronics, and hence named after it.\r\n\r\nI was unable to find a cost-effective generator and using motors backward to generate power seemed too wasteful because of their inherent detent torque.  I decided to go back to fundamentals and build a turbine would give the maximum possible output for its size.\r\n\r\nThis generator was used in Antarctica along with CFA2018 and the organization 2041 to generate power and power our electronics. It goes to show the resilience in 3D printed parts and what amazing things this technology can do in the future and play an important role in creating a sustainable future.\r\n","image_url":"https:\/\/cdn.hackaday.io\/images\/9495781531055938932.jpg","views":17606,"comments":25,"followers":268,"skulls":210,"logs":10,"details":1,"instruction":7,"components":10,"images":3,"created":1531056015,"updated":1542716204,"tags":["energy","wind turbine","3d printing","dual axial flux","renewable","hardware","antarctica","GENERATOR","2018hackadayprize","3D printed","ongoing project"]}]}
